<mxfile host="app.diagrams.net" modified="2022-10-16T11:52:14.937Z" agent="5.0 (Windows NT 10.0; Win64; x64) AppleWebKit/537.36 (KHTML, like Gecko) Chrome/106.0.0.0 Safari/537.36" etag="jweMqJEDim6laB6waVbG" version="20.4.1" type="gitlab">
  <diagram id="R2lEEEUBdFMjLlhIrx00" name="Page-1">
    <mxGraphModel dx="6390" dy="3613" grid="1" gridSize="10" guides="1" tooltips="1" connect="1" arrows="1" fold="1" page="1" pageScale="1" pageWidth="850" pageHeight="1100" math="0" shadow="0" extFonts="Permanent Marker^https://fonts.googleapis.com/css?family=Permanent+Marker">
      <root>
        <mxCell id="0" />
        <mxCell id="1" parent="0" />
        <mxCell id="UGvmYGUwUnKI-gR3_PE9-43" value="Assignment" style="swimlane;fontStyle=1;align=center;verticalAlign=top;childLayout=stackLayout;horizontal=1;startSize=26;horizontalStack=0;resizeParent=1;resizeParentMax=0;resizeLast=0;collapsible=1;marginBottom=0;" parent="1" vertex="1">
          <mxGeometry x="-760" y="-720" width="160" height="156" as="geometry" />
        </mxCell>
        <mxCell id="UGvmYGUwUnKI-gR3_PE9-44" value="+ Id: int" style="text;strokeColor=none;fillColor=none;align=left;verticalAlign=top;spacingLeft=4;spacingRight=4;overflow=hidden;rotatable=0;points=[[0,0.5],[1,0.5]];portConstraint=eastwest;" parent="UGvmYGUwUnKI-gR3_PE9-43" vertex="1">
          <mxGeometry y="26" width="160" height="26" as="geometry" />
        </mxCell>
        <mxCell id="UGvmYGUwUnKI-gR3_PE9-81" value="+ Name: string" style="text;strokeColor=none;fillColor=none;align=left;verticalAlign=top;spacingLeft=4;spacingRight=4;overflow=hidden;rotatable=0;points=[[0,0.5],[1,0.5]];portConstraint=eastwest;" parent="UGvmYGUwUnKI-gR3_PE9-43" vertex="1">
          <mxGeometry y="52" width="160" height="26" as="geometry" />
        </mxCell>
        <mxCell id="UGvmYGUwUnKI-gR3_PE9-47" value="+ Description: string" style="text;strokeColor=none;fillColor=none;align=left;verticalAlign=top;spacingLeft=4;spacingRight=4;overflow=hidden;rotatable=0;points=[[0,0.5],[1,0.5]];portConstraint=eastwest;" parent="UGvmYGUwUnKI-gR3_PE9-43" vertex="1">
          <mxGeometry y="78" width="160" height="26" as="geometry" />
        </mxCell>
        <mxCell id="UGvmYGUwUnKI-gR3_PE9-46" value="+ Responsible: int" style="text;strokeColor=none;fillColor=none;align=left;verticalAlign=top;spacingLeft=4;spacingRight=4;overflow=hidden;rotatable=0;points=[[0,0.5],[1,0.5]];portConstraint=eastwest;" parent="UGvmYGUwUnKI-gR3_PE9-43" vertex="1">
          <mxGeometry y="104" width="160" height="26" as="geometry" />
        </mxCell>
        <mxCell id="UGvmYGUwUnKI-gR3_PE9-79" value="+ Status: enum" style="text;strokeColor=none;fillColor=none;align=left;verticalAlign=top;spacingLeft=4;spacingRight=4;overflow=hidden;rotatable=0;points=[[0,0.5],[1,0.5]];portConstraint=eastwest;" parent="UGvmYGUwUnKI-gR3_PE9-43" vertex="1">
          <mxGeometry y="130" width="160" height="26" as="geometry" />
        </mxCell>
        <mxCell id="UGvmYGUwUnKI-gR3_PE9-66" value="AssignmentDAL" style="swimlane;fontStyle=1;align=center;verticalAlign=top;childLayout=stackLayout;horizontal=1;startSize=26;horizontalStack=0;resizeParent=1;resizeParentMax=0;resizeLast=0;collapsible=1;marginBottom=0;" parent="1" vertex="1">
          <mxGeometry x="-553.75" y="-720" width="310" height="190" as="geometry" />
        </mxCell>
        <mxCell id="UGvmYGUwUnKI-gR3_PE9-67" value="+ Assignments: List&lt;Assignment&gt;" style="text;strokeColor=none;fillColor=none;align=left;verticalAlign=top;spacingLeft=4;spacingRight=4;overflow=hidden;rotatable=0;points=[[0,0.5],[1,0.5]];portConstraint=eastwest;" parent="UGvmYGUwUnKI-gR3_PE9-66" vertex="1">
          <mxGeometry y="26" width="310" height="26" as="geometry" />
        </mxCell>
        <mxCell id="UGvmYGUwUnKI-gR3_PE9-71" value="" style="line;strokeWidth=1;fillColor=none;align=left;verticalAlign=middle;spacingTop=-1;spacingLeft=3;spacingRight=3;rotatable=0;labelPosition=right;points=[];portConstraint=eastwest;strokeColor=inherit;" parent="UGvmYGUwUnKI-gR3_PE9-66" vertex="1">
          <mxGeometry y="52" width="310" height="8" as="geometry" />
        </mxCell>
        <mxCell id="UGvmYGUwUnKI-gR3_PE9-78" value="+ AddAssignment(Assignment): void" style="text;strokeColor=none;fillColor=none;align=left;verticalAlign=top;spacingLeft=4;spacingRight=4;overflow=hidden;rotatable=0;points=[[0,0.5],[1,0.5]];portConstraint=eastwest;" parent="UGvmYGUwUnKI-gR3_PE9-66" vertex="1">
          <mxGeometry y="60" width="310" height="26" as="geometry" />
        </mxCell>
        <mxCell id="UGvmYGUwUnKI-gR3_PE9-72" value="+ ViewAssignment(int assignmentId): Assignment" style="text;strokeColor=none;fillColor=none;align=left;verticalAlign=top;spacingLeft=4;spacingRight=4;overflow=hidden;rotatable=0;points=[[0,0.5],[1,0.5]];portConstraint=eastwest;" parent="UGvmYGUwUnKI-gR3_PE9-66" vertex="1">
          <mxGeometry y="86" width="310" height="26" as="geometry" />
        </mxCell>
        <mxCell id="UGvmYGUwUnKI-gR3_PE9-77" value="+ ViewUserAssignment(int userId): List&lt;Assignment&gt;" style="text;strokeColor=none;fillColor=none;align=left;verticalAlign=top;spacingLeft=4;spacingRight=4;overflow=hidden;rotatable=0;points=[[0,0.5],[1,0.5]];portConstraint=eastwest;" parent="UGvmYGUwUnKI-gR3_PE9-66" vertex="1">
          <mxGeometry y="112" width="310" height="26" as="geometry" />
        </mxCell>
        <mxCell id="UGvmYGUwUnKI-gR3_PE9-82" value="+ ChangeResponsible(int taskId, int userId): void" style="text;strokeColor=none;fillColor=none;align=left;verticalAlign=top;spacingLeft=4;spacingRight=4;overflow=hidden;rotatable=0;points=[[0,0.5],[1,0.5]];portConstraint=eastwest;" parent="UGvmYGUwUnKI-gR3_PE9-66" vertex="1">
          <mxGeometry y="138" width="310" height="26" as="geometry" />
        </mxCell>
        <mxCell id="UGvmYGUwUnKI-gR3_PE9-80" value="+ ChangeStatus(int taskId, enum status): void" style="text;strokeColor=none;fillColor=none;align=left;verticalAlign=top;spacingLeft=4;spacingRight=4;overflow=hidden;rotatable=0;points=[[0,0.5],[1,0.5]];portConstraint=eastwest;" parent="UGvmYGUwUnKI-gR3_PE9-66" vertex="1">
          <mxGeometry y="164" width="310" height="26" as="geometry" />
        </mxCell>
        <mxCell id="UGvmYGUwUnKI-gR3_PE9-73" value="User" style="swimlane;fontStyle=1;align=center;verticalAlign=top;childLayout=stackLayout;horizontal=1;startSize=26;horizontalStack=0;resizeParent=1;resizeParentMax=0;resizeLast=0;collapsible=1;marginBottom=0;" parent="1" vertex="1">
          <mxGeometry x="520" y="-590" width="160" height="104" as="geometry" />
        </mxCell>
        <mxCell id="UGvmYGUwUnKI-gR3_PE9-74" value="+ Id: int" style="text;strokeColor=none;fillColor=none;align=left;verticalAlign=top;spacingLeft=4;spacingRight=4;overflow=hidden;rotatable=0;points=[[0,0.5],[1,0.5]];portConstraint=eastwest;" parent="UGvmYGUwUnKI-gR3_PE9-73" vertex="1">
          <mxGeometry y="26" width="160" height="26" as="geometry" />
        </mxCell>
        <mxCell id="UGvmYGUwUnKI-gR3_PE9-76" value="+ Username: string" style="text;strokeColor=none;fillColor=none;align=left;verticalAlign=top;spacingLeft=4;spacingRight=4;overflow=hidden;rotatable=0;points=[[0,0.5],[1,0.5]];portConstraint=eastwest;" parent="UGvmYGUwUnKI-gR3_PE9-73" vertex="1">
          <mxGeometry y="52" width="160" height="26" as="geometry" />
        </mxCell>
        <mxCell id="UGvmYGUwUnKI-gR3_PE9-85" value="+ Password: string" style="text;strokeColor=none;fillColor=none;align=left;verticalAlign=top;spacingLeft=4;spacingRight=4;overflow=hidden;rotatable=0;points=[[0,0.5],[1,0.5]];portConstraint=eastwest;" parent="UGvmYGUwUnKI-gR3_PE9-73" vertex="1">
          <mxGeometry y="78" width="160" height="26" as="geometry" />
        </mxCell>
        <mxCell id="UGvmYGUwUnKI-gR3_PE9-92" value="UserDAL" style="swimlane;fontStyle=1;align=center;verticalAlign=top;childLayout=stackLayout;horizontal=1;startSize=26;horizontalStack=0;resizeParent=1;resizeParentMax=0;resizeLast=0;collapsible=1;marginBottom=0;" parent="1" vertex="1">
          <mxGeometry x="152.5" y="-590" width="310" height="112" as="geometry" />
        </mxCell>
        <mxCell id="UGvmYGUwUnKI-gR3_PE9-93" value="+ Users: List&lt;User&gt;" style="text;strokeColor=none;fillColor=none;align=left;verticalAlign=top;spacingLeft=4;spacingRight=4;overflow=hidden;rotatable=0;points=[[0,0.5],[1,0.5]];portConstraint=eastwest;" parent="UGvmYGUwUnKI-gR3_PE9-92" vertex="1">
          <mxGeometry y="26" width="310" height="26" as="geometry" />
        </mxCell>
        <mxCell id="UGvmYGUwUnKI-gR3_PE9-94" value="" style="line;strokeWidth=1;fillColor=none;align=left;verticalAlign=middle;spacingTop=-1;spacingLeft=3;spacingRight=3;rotatable=0;labelPosition=right;points=[];portConstraint=eastwest;strokeColor=inherit;" parent="UGvmYGUwUnKI-gR3_PE9-92" vertex="1">
          <mxGeometry y="52" width="310" height="8" as="geometry" />
        </mxCell>
        <mxCell id="UGvmYGUwUnKI-gR3_PE9-95" value="+ AddUser(User): void" style="text;strokeColor=none;fillColor=none;align=left;verticalAlign=top;spacingLeft=4;spacingRight=4;overflow=hidden;rotatable=0;points=[[0,0.5],[1,0.5]];portConstraint=eastwest;" parent="UGvmYGUwUnKI-gR3_PE9-92" vertex="1">
          <mxGeometry y="60" width="310" height="26" as="geometry" />
        </mxCell>
        <mxCell id="UGvmYGUwUnKI-gR3_PE9-151" value="+ SearchUser(userId): User" style="text;strokeColor=none;fillColor=none;align=left;verticalAlign=top;spacingLeft=4;spacingRight=4;overflow=hidden;rotatable=0;points=[[0,0.5],[1,0.5]];portConstraint=eastwest;" parent="UGvmYGUwUnKI-gR3_PE9-92" vertex="1">
          <mxGeometry y="86" width="310" height="26" as="geometry" />
        </mxCell>
        <mxCell id="UGvmYGUwUnKI-gR3_PE9-105" value="" style="endArrow=block;dashed=1;endFill=0;endSize=12;html=1;rounded=0;exitX=0.5;exitY=0;exitDx=0;exitDy=0;entryX=0.5;entryY=1;entryDx=0;entryDy=0;" parent="1" source="UGvmYGUwUnKI-gR3_PE9-66" target="UGvmYGUwUnKI-gR3_PE9-147" edge="1">
          <mxGeometry width="160" relative="1" as="geometry">
            <mxPoint x="-440" y="-650" as="sourcePoint" />
            <mxPoint x="-370" y="-700" as="targetPoint" />
          </mxGeometry>
        </mxCell>
        <mxCell id="UGvmYGUwUnKI-gR3_PE9-106" value="" style="endArrow=block;dashed=1;endFill=0;endSize=12;html=1;rounded=0;exitX=0.5;exitY=0;exitDx=0;exitDy=0;entryX=0.5;entryY=1;entryDx=0;entryDy=0;" parent="1" source="UGvmYGUwUnKI-gR3_PE9-92" target="UGvmYGUwUnKI-gR3_PE9-148" edge="1">
          <mxGeometry width="160" relative="1" as="geometry">
            <mxPoint x="-120" y="-650" as="sourcePoint" />
            <mxPoint x="-40" y="-690" as="targetPoint" />
          </mxGeometry>
        </mxCell>
        <mxCell id="UGvmYGUwUnKI-gR3_PE9-107" value="" style="endArrow=diamondThin;endFill=1;endSize=24;html=1;rounded=0;entryX=0;entryY=0.5;entryDx=0;entryDy=0;exitX=1;exitY=0.5;exitDx=0;exitDy=0;" parent="1" source="UGvmYGUwUnKI-gR3_PE9-44" target="UGvmYGUwUnKI-gR3_PE9-67" edge="1">
          <mxGeometry width="160" relative="1" as="geometry">
            <mxPoint x="-620" y="-520" as="sourcePoint" />
            <mxPoint x="-80" y="-500" as="targetPoint" />
          </mxGeometry>
        </mxCell>
        <mxCell id="UGvmYGUwUnKI-gR3_PE9-109" value="" style="endArrow=diamondThin;endFill=1;endSize=24;html=1;rounded=0;entryX=1;entryY=0.5;entryDx=0;entryDy=0;exitX=0;exitY=0.5;exitDx=0;exitDy=0;" parent="1" source="UGvmYGUwUnKI-gR3_PE9-74" target="UGvmYGUwUnKI-gR3_PE9-93" edge="1">
          <mxGeometry width="160" relative="1" as="geometry">
            <mxPoint x="20" y="-430" as="sourcePoint" />
            <mxPoint x="130" y="-430" as="targetPoint" />
          </mxGeometry>
        </mxCell>
        <mxCell id="UGvmYGUwUnKI-gR3_PE9-111" value="AssignmentBL" style="swimlane;fontStyle=1;align=center;verticalAlign=top;childLayout=stackLayout;horizontal=1;startSize=26;horizontalStack=0;resizeParent=1;resizeParentMax=0;resizeLast=0;collapsible=1;marginBottom=0;" parent="1" vertex="1">
          <mxGeometry x="-180" y="-910" width="310" height="216" as="geometry" />
        </mxCell>
        <mxCell id="UGvmYGUwUnKI-gR3_PE9-112" value="- _assignmentDAL: IAssignmentDAL" style="text;strokeColor=none;fillColor=none;align=left;verticalAlign=top;spacingLeft=4;spacingRight=4;overflow=hidden;rotatable=0;points=[[0,0.5],[1,0.5]];portConstraint=eastwest;" parent="UGvmYGUwUnKI-gR3_PE9-111" vertex="1">
          <mxGeometry y="26" width="310" height="26" as="geometry" />
        </mxCell>
        <mxCell id="UGvmYGUwUnKI-gR3_PE9-169" value="- _userBL : IUserBL" style="text;strokeColor=none;fillColor=none;align=left;verticalAlign=top;spacingLeft=4;spacingRight=4;overflow=hidden;rotatable=0;points=[[0,0.5],[1,0.5]];portConstraint=eastwest;" parent="UGvmYGUwUnKI-gR3_PE9-111" vertex="1">
          <mxGeometry y="52" width="310" height="26" as="geometry" />
        </mxCell>
        <mxCell id="UGvmYGUwUnKI-gR3_PE9-113" value="" style="line;strokeWidth=1;fillColor=none;align=left;verticalAlign=middle;spacingTop=-1;spacingLeft=3;spacingRight=3;rotatable=0;labelPosition=right;points=[];portConstraint=eastwest;strokeColor=inherit;" parent="UGvmYGUwUnKI-gR3_PE9-111" vertex="1">
          <mxGeometry y="78" width="310" height="8" as="geometry" />
        </mxCell>
        <mxCell id="UGvmYGUwUnKI-gR3_PE9-153" value="+ AddAssignment(Assignment): void" style="text;strokeColor=none;fillColor=none;align=left;verticalAlign=top;spacingLeft=4;spacingRight=4;overflow=hidden;rotatable=0;points=[[0,0.5],[1,0.5]];portConstraint=eastwest;" parent="UGvmYGUwUnKI-gR3_PE9-111" vertex="1">
          <mxGeometry y="86" width="310" height="26" as="geometry" />
        </mxCell>
        <mxCell id="UGvmYGUwUnKI-gR3_PE9-117" value="+ ViewAssignment(int assignmentId): Assignment" style="text;strokeColor=none;fillColor=none;align=left;verticalAlign=top;spacingLeft=4;spacingRight=4;overflow=hidden;rotatable=0;points=[[0,0.5],[1,0.5]];portConstraint=eastwest;" parent="UGvmYGUwUnKI-gR3_PE9-111" vertex="1">
          <mxGeometry y="112" width="310" height="26" as="geometry" />
        </mxCell>
        <mxCell id="UGvmYGUwUnKI-gR3_PE9-118" value="+ ViewUserAssignment(int userId): List&lt;Assignment&gt;" style="text;strokeColor=none;fillColor=none;align=left;verticalAlign=top;spacingLeft=4;spacingRight=4;overflow=hidden;rotatable=0;points=[[0,0.5],[1,0.5]];portConstraint=eastwest;" parent="UGvmYGUwUnKI-gR3_PE9-111" vertex="1">
          <mxGeometry y="138" width="310" height="26" as="geometry" />
        </mxCell>
        <mxCell id="UGvmYGUwUnKI-gR3_PE9-162" value="+ ChangeResponsible(int taskId, int userId): void" style="text;strokeColor=none;fillColor=none;align=left;verticalAlign=top;spacingLeft=4;spacingRight=4;overflow=hidden;rotatable=0;points=[[0,0.5],[1,0.5]];portConstraint=eastwest;" parent="UGvmYGUwUnKI-gR3_PE9-111" vertex="1">
          <mxGeometry y="164" width="310" height="26" as="geometry" />
        </mxCell>
        <mxCell id="UGvmYGUwUnKI-gR3_PE9-164" value="+ ChangeStatus(int taskId, enum status): void" style="text;strokeColor=none;fillColor=none;align=left;verticalAlign=top;spacingLeft=4;spacingRight=4;overflow=hidden;rotatable=0;points=[[0,0.5],[1,0.5]];portConstraint=eastwest;" parent="UGvmYGUwUnKI-gR3_PE9-111" vertex="1">
          <mxGeometry y="190" width="310" height="26" as="geometry" />
        </mxCell>
        <mxCell id="UGvmYGUwUnKI-gR3_PE9-120" value="" style="endArrow=block;dashed=1;endFill=0;endSize=12;html=1;rounded=0;entryX=0.5;entryY=1;entryDx=0;entryDy=0;exitX=0.5;exitY=0;exitDx=0;exitDy=0;" parent="1" source="UGvmYGUwUnKI-gR3_PE9-111" target="UGvmYGUwUnKI-gR3_PE9-146" edge="1">
          <mxGeometry width="160" relative="1" as="geometry">
            <mxPoint x="-460" y="-840" as="sourcePoint" />
            <mxPoint x="-690" y="-810" as="targetPoint" />
          </mxGeometry>
        </mxCell>
        <mxCell id="UGvmYGUwUnKI-gR3_PE9-132" value="" style="rounded=0;orthogonalLoop=1;jettySize=auto;html=1;endArrow=none;endFill=0;sketch=0;sourcePerimeterSpacing=0;targetPerimeterSpacing=0;exitX=1;exitY=0.223;exitDx=0;exitDy=0;exitPerimeter=0;" parent="1" source="UGvmYGUwUnKI-gR3_PE9-147" target="UGvmYGUwUnKI-gR3_PE9-134" edge="1">
          <mxGeometry relative="1" as="geometry">
            <mxPoint x="-420" y="-731" as="sourcePoint" />
          </mxGeometry>
        </mxCell>
        <mxCell id="UGvmYGUwUnKI-gR3_PE9-133" value="" style="rounded=0;orthogonalLoop=1;jettySize=auto;html=1;endArrow=halfCircle;endFill=0;entryX=0.5;entryY=0.5;endSize=6;strokeWidth=1;sketch=0;exitX=0;exitY=0.5;exitDx=0;exitDy=0;" parent="1" source="UGvmYGUwUnKI-gR3_PE9-112" target="UGvmYGUwUnKI-gR3_PE9-134" edge="1">
          <mxGeometry relative="1" as="geometry">
            <mxPoint x="-520" y="-730" as="sourcePoint" />
          </mxGeometry>
        </mxCell>
        <mxCell id="UGvmYGUwUnKI-gR3_PE9-134" value="" style="ellipse;whiteSpace=wrap;html=1;align=center;aspect=fixed;resizable=0;points=[];outlineConnect=0;sketch=0;" parent="1" vertex="1">
          <mxGeometry x="-220" y="-876" width="10" height="10" as="geometry" />
        </mxCell>
        <mxCell id="UGvmYGUwUnKI-gR3_PE9-135" value="UserBL" style="swimlane;fontStyle=1;align=center;verticalAlign=top;childLayout=stackLayout;horizontal=1;startSize=26;horizontalStack=0;resizeParent=1;resizeParentMax=0;resizeLast=0;collapsible=1;marginBottom=0;" parent="1" vertex="1">
          <mxGeometry x="480" y="-866" width="310" height="112" as="geometry" />
        </mxCell>
        <mxCell id="UGvmYGUwUnKI-gR3_PE9-136" value="- _userDAL: IUserDAL" style="text;strokeColor=none;fillColor=none;align=left;verticalAlign=top;spacingLeft=4;spacingRight=4;overflow=hidden;rotatable=0;points=[[0,0.5],[1,0.5]];portConstraint=eastwest;" parent="UGvmYGUwUnKI-gR3_PE9-135" vertex="1">
          <mxGeometry y="26" width="310" height="26" as="geometry" />
        </mxCell>
        <mxCell id="UGvmYGUwUnKI-gR3_PE9-137" value="" style="line;strokeWidth=1;fillColor=none;align=left;verticalAlign=middle;spacingTop=-1;spacingLeft=3;spacingRight=3;rotatable=0;labelPosition=right;points=[];portConstraint=eastwest;strokeColor=inherit;" parent="UGvmYGUwUnKI-gR3_PE9-135" vertex="1">
          <mxGeometry y="52" width="310" height="8" as="geometry" />
        </mxCell>
        <mxCell id="UGvmYGUwUnKI-gR3_PE9-138" value="+ AddUser(User): void" style="text;strokeColor=none;fillColor=none;align=left;verticalAlign=top;spacingLeft=4;spacingRight=4;overflow=hidden;rotatable=0;points=[[0,0.5],[1,0.5]];portConstraint=eastwest;" parent="UGvmYGUwUnKI-gR3_PE9-135" vertex="1">
          <mxGeometry y="60" width="310" height="26" as="geometry" />
        </mxCell>
        <mxCell id="UGvmYGUwUnKI-gR3_PE9-174" value="+ SearchUser(userId): User" style="text;strokeColor=none;fillColor=none;align=left;verticalAlign=top;spacingLeft=4;spacingRight=4;overflow=hidden;rotatable=0;points=[[0,0.5],[1,0.5]];portConstraint=eastwest;" parent="UGvmYGUwUnKI-gR3_PE9-135" vertex="1">
          <mxGeometry y="86" width="310" height="26" as="geometry" />
        </mxCell>
        <mxCell id="UGvmYGUwUnKI-gR3_PE9-143" value="" style="rounded=0;orthogonalLoop=1;jettySize=auto;html=1;endArrow=none;endFill=0;sketch=0;sourcePerimeterSpacing=0;targetPerimeterSpacing=0;exitX=1;exitY=0.5;exitDx=0;exitDy=0;" parent="1" source="UGvmYGUwUnKI-gR3_PE9-148" target="UGvmYGUwUnKI-gR3_PE9-145" edge="1">
          <mxGeometry relative="1" as="geometry">
            <mxPoint x="10" y="-751" as="sourcePoint" />
          </mxGeometry>
        </mxCell>
        <mxCell id="UGvmYGUwUnKI-gR3_PE9-144" value="" style="rounded=0;orthogonalLoop=1;jettySize=auto;html=1;endArrow=halfCircle;endFill=0;entryX=0.5;entryY=0.5;endSize=6;strokeWidth=1;sketch=0;exitX=0.007;exitY=0.96;exitDx=0;exitDy=0;exitPerimeter=0;" parent="1" source="UGvmYGUwUnKI-gR3_PE9-174" target="UGvmYGUwUnKI-gR3_PE9-145" edge="1">
          <mxGeometry relative="1" as="geometry">
            <mxPoint x="30" y="-720" as="sourcePoint" />
          </mxGeometry>
        </mxCell>
        <mxCell id="UGvmYGUwUnKI-gR3_PE9-145" value="" style="ellipse;whiteSpace=wrap;html=1;align=center;aspect=fixed;resizable=0;points=[];outlineConnect=0;sketch=0;rotation=-150;" parent="1" vertex="1">
          <mxGeometry x="425" y="-692.5" width="10" height="10" as="geometry" />
        </mxCell>
        <mxCell id="UGvmYGUwUnKI-gR3_PE9-146" value="&lt;p style=&quot;margin:0px;margin-top:4px;text-align:center;&quot;&gt;&lt;i&gt;&amp;lt;&amp;lt;Interface&amp;gt;&amp;gt;&lt;/i&gt;&lt;br&gt;&lt;/p&gt;&lt;p style=&quot;margin:0px;margin-top:4px;text-align:center;&quot;&gt;&lt;i&gt;ITaskBL&lt;/i&gt;&lt;/p&gt;&lt;hr size=&quot;1&quot;&gt;&lt;p style=&quot;margin:0px;margin-left:4px;&quot;&gt;+ AddTask(Task): void&lt;br&gt;+ ChangeStatus(taskId): void&lt;br&gt;&lt;/p&gt;&lt;p style=&quot;margin:0px;margin-left:4px;&quot;&gt;+ ChangeResponsible(taskId, User): void&lt;br&gt;&lt;/p&gt;" style="verticalAlign=top;align=left;overflow=fill;fontSize=12;fontFamily=Helvetica;html=1;" parent="1" vertex="1">
          <mxGeometry x="-142.5" y="-1100" width="235" height="100" as="geometry" />
        </mxCell>
        <mxCell id="UGvmYGUwUnKI-gR3_PE9-147" value="&lt;p style=&quot;margin:0px;margin-top:4px;text-align:center;&quot;&gt;&lt;i&gt;&amp;lt;&amp;lt;Interface&amp;gt;&amp;gt;&lt;/i&gt;&lt;br&gt;&lt;/p&gt;&lt;p style=&quot;margin:0px;margin-top:4px;text-align:center;&quot;&gt;&lt;i&gt;IAssignmentDAL&lt;/i&gt;&lt;/p&gt;&lt;hr size=&quot;1&quot;&gt;&lt;p style=&quot;margin:0px;margin-left:4px;&quot;&gt;+ AddAssignment(Assignment): void&lt;br&gt;+ ViewAssignment(int assignmentId): Assignment&lt;br&gt;&lt;/p&gt;&lt;p style=&quot;margin:0px;margin-left:4px;&quot;&gt;+ ViewUserAssignment(int userId): List&amp;lt;Assignment&amp;gt;&lt;br&gt;&lt;/p&gt;+ ChangeResponsible(int taskId, int userId): void&lt;p style=&quot;margin:0px;margin-left:4px;&quot;&gt;+ ChangeStatus(int taskId, enum status): void&lt;br&gt;&lt;/p&gt;" style="verticalAlign=top;align=left;overflow=fill;fontSize=12;fontFamily=Helvetica;html=1;" parent="1" vertex="1">
          <mxGeometry x="-550" y="-900" width="302.5" height="130" as="geometry" />
        </mxCell>
        <mxCell id="UGvmYGUwUnKI-gR3_PE9-148" value="&lt;p style=&quot;margin:0px;margin-top:4px;text-align:center;&quot;&gt;&lt;i&gt;&amp;lt;&amp;lt;Interface&amp;gt;&amp;gt;&lt;/i&gt;&lt;br&gt;&lt;/p&gt;&lt;p style=&quot;margin:0px;margin-top:4px;text-align:center;&quot;&gt;&lt;i&gt;IUserDAL&lt;/i&gt;&lt;/p&gt;&lt;hr size=&quot;1&quot;&gt;&lt;p style=&quot;margin:0px;margin-left:4px;&quot;&gt;+ AddUser(User): void&lt;br&gt;&lt;/p&gt;&lt;p style=&quot;margin:0px;margin-left:4px;&quot;&gt;+ SearchUser(userId): User&lt;br&gt;&lt;/p&gt;" style="verticalAlign=top;align=left;overflow=fill;fontSize=12;fontFamily=Helvetica;html=1;" parent="1" vertex="1">
          <mxGeometry x="222.5" y="-730" width="170" height="85" as="geometry" />
        </mxCell>
        <mxCell id="UGvmYGUwUnKI-gR3_PE9-159" value="&lt;p style=&quot;margin:0px;margin-top:4px;text-align:center;&quot;&gt;&lt;i&gt;&amp;lt;&amp;lt;Interface&amp;gt;&amp;gt;&lt;/i&gt;&lt;br&gt;&lt;/p&gt;&lt;p style=&quot;margin:0px;margin-top:4px;text-align:center;&quot;&gt;&lt;i&gt;IUserBL&lt;/i&gt;&lt;/p&gt;&lt;hr size=&quot;1&quot;&gt;&lt;p style=&quot;margin:0px;margin-left:4px;&quot;&gt;+ AddUser(User): void&lt;br&gt;&lt;/p&gt;&lt;p style=&quot;margin:0px;margin-left:4px;&quot;&gt;+ SearchUser(userId): User&lt;br&gt;&lt;/p&gt;" style="verticalAlign=top;align=left;overflow=fill;fontSize=12;fontFamily=Helvetica;html=1;" parent="1" vertex="1">
          <mxGeometry x="190" y="-866" width="235" height="90" as="geometry" />
        </mxCell>
        <mxCell id="UGvmYGUwUnKI-gR3_PE9-165" value="" style="endArrow=block;dashed=1;endFill=0;endSize=12;html=1;rounded=0;exitX=-0.004;exitY=0.74;exitDx=0;exitDy=0;entryX=1;entryY=0.5;entryDx=0;entryDy=0;exitPerimeter=0;" parent="1" source="UGvmYGUwUnKI-gR3_PE9-136" target="UGvmYGUwUnKI-gR3_PE9-159" edge="1">
          <mxGeometry width="160" relative="1" as="geometry">
            <mxPoint x="530" y="-605.5" as="sourcePoint" />
            <mxPoint x="530" y="-640" as="targetPoint" />
          </mxGeometry>
        </mxCell>
        <mxCell id="UGvmYGUwUnKI-gR3_PE9-171" value="" style="rounded=0;orthogonalLoop=1;jettySize=auto;html=1;endArrow=none;endFill=0;sketch=0;sourcePerimeterSpacing=0;targetPerimeterSpacing=0;exitX=0.003;exitY=0.229;exitDx=0;exitDy=0;exitPerimeter=0;" parent="1" source="UGvmYGUwUnKI-gR3_PE9-159" target="UGvmYGUwUnKI-gR3_PE9-173" edge="1">
          <mxGeometry relative="1" as="geometry">
            <mxPoint x="190" y="-830" as="sourcePoint" />
          </mxGeometry>
        </mxCell>
        <mxCell id="UGvmYGUwUnKI-gR3_PE9-172" value="" style="rounded=0;orthogonalLoop=1;jettySize=auto;html=1;endArrow=halfCircle;endFill=0;entryX=0.5;entryY=0.5;endSize=6;strokeWidth=1;sketch=0;exitX=1;exitY=0.5;exitDx=0;exitDy=0;" parent="1" source="UGvmYGUwUnKI-gR3_PE9-169" target="UGvmYGUwUnKI-gR3_PE9-173" edge="1">
          <mxGeometry relative="1" as="geometry">
            <mxPoint x="140" y="-835" as="sourcePoint" />
          </mxGeometry>
        </mxCell>
        <mxCell id="UGvmYGUwUnKI-gR3_PE9-173" value="" style="ellipse;whiteSpace=wrap;html=1;align=center;aspect=fixed;resizable=0;points=[];outlineConnect=0;sketch=0;" parent="1" vertex="1">
          <mxGeometry x="160" y="-850" width="10" height="10" as="geometry" />
        </mxCell>
      </root>
    </mxGraphModel>
  </diagram>
</mxfile>
